(footprint "RFM95W" (version 20211014) (generator pcbnew)
  (layer "F.Cu")
  (tedit 63E07B6E)
  (attr smd)
  (fp_text reference "RFM95W" (at 0.1 9.6) (layer "F.Fab")
    (effects (font (size 1 1) (thickness 0.15)))
    (tstamp 1d1d1180-d14e-439a-993b-59283a64ff30)
  )
  (fp_text value "REF**" (at -6.9 -9.3) (layer "F.SilkS")
    (effects (font (size 1 1) (thickness 0.15)))
    (tstamp dc529472-5f5c-4aee-8587-2ceaebef495d)
  )
  (fp_line (start -8 -8) (end 8 -8) (layer "F.SilkS") (width 0.2) (tstamp 032983ee-e812-4071-a400-9e645fa62c9a))
  (fp_line (start 8 8) (end -8 8) (layer "F.SilkS") (width 0.2) (tstamp ccc300cc-1b9f-42a0-aa7a-badea07fb048))
  (fp_circle (center -9.75 -7) (end -9.45845 -7) (layer "F.SilkS") (width 0.2) (fill none) (tstamp 15a931d1-3929-4b03-95b4-c140735d2b1a))
  (fp_poly (pts
      (xy -10.0226 -7.2)
      (xy -9.5 -7.2)
      (xy -9.5 -6.81536)
      (xy -10.0226 -6.81536)
    ) (layer "F.SilkS") (width 0.381) (fill solid) (tstamp 44e4199d-9a44-4390-be79-46db6e1a8ab7))
  (fp_line (start 8 -8) (end 8 8) (layer "Dwgs.User") (width 0.2) (tstamp 06a9ae71-e3c1-4cc3-b2e3-a63700a1b326))
  (fp_line (start -8.65 -8.25) (end 8.65 -8.25) (layer "Dwgs.User") (width 0.05) (tstamp 0c063618-eac8-441c-8aa9-fa17b2f6c52c))
  (fp_line (start -8.65 8.25) (end -8.65 -8.25) (layer "Dwgs.User") (width 0.05) (tstamp 3f65c4bd-282c-46b6-be29-3255d65994f3))
  (fp_line (start -8 8) (end -8 -8) (layer "Dwgs.User") (width 0.2) (tstamp 6146eab9-fca2-4bb4-bc11-0a211214f1c3))
  (fp_line (start 8.65 8.25) (end -8.65 8.25) (layer "Dwgs.User") (width 0.05) (tstamp 75ab8b51-2d15-471a-a9a4-eba49bbe99e8))
  (fp_line (start 8.65 -8.25) (end 8.65 8.25) (layer "Dwgs.User") (width 0.05) (tstamp 7d74f531-c792-4beb-b3ab-45711ef608ce))
  (fp_rect (start -8.7 -8.3) (end 8.7 8.3) (layer "Margin") (width 0.12) (fill none) (tstamp 38c8d13c-d60b-4203-9dc8-3ee086e34d77))
  (fp_rect (start -8.8 -8.4) (end 8.8 8.4) (layer "F.CrtYd") (width 0.05) (fill none) (tstamp f4ce5382-76f5-4be8-8e80-743a87779c99))
  (pad "1" smd rect (at -7.4 -7) (size 1.95 1.05) (layers "F.Cu" "F.Paste" "F.Mask") (tstamp 67a6b916-ca7a-41fc-ae72-435f634ad18a))
  (pad "2" smd rect (at -7.4 -5) (size 1.95 1.05) (layers "F.Cu" "F.Paste" "F.Mask") (tstamp 3326710d-69e9-4099-a97d-86d21f9b321f))
  (pad "3" smd rect (at -7.4 -3) (size 1.95 1.05) (layers "F.Cu" "F.Paste" "F.Mask") (tstamp 85d017ce-00d8-4b9d-9318-d2d75da9809b))
  (pad "4" smd rect (at -7.4 -1) (size 1.95 1.05) (layers "F.Cu" "F.Paste" "F.Mask") (tstamp aee17aa9-4063-4345-8a9e-06f60fdbf52e))
  (pad "5" smd rect (at -7.4 1) (size 1.95 1.05) (layers "F.Cu" "F.Paste" "F.Mask") (tstamp 22fd0b99-335b-4814-8e02-dee040a2d596))
  (pad "6" smd rect (at -7.4 3) (size 1.95 1.05) (layers "F.Cu" "F.Paste" "F.Mask") (tstamp 44356c0d-9b78-48f4-a3d4-ef05db46f5b0))
  (pad "7" smd rect (at -7.4 5) (size 1.95 1.05) (layers "F.Cu" "F.Paste" "F.Mask") (tstamp d6a08934-0f05-4531-86f0-e5931f2293f7))
  (pad "8" smd rect (at -7.4 7) (size 1.95 1.05) (layers "F.Cu" "F.Paste" "F.Mask") (tstamp 6b4371c5-3a90-4fb2-825e-41df9b3602a8))
  (pad "9" smd rect (at 7.4 7 180) (size 1.95 1.05) (layers "F.Cu" "F.Paste" "F.Mask") (tstamp 4e24b314-e05b-43cf-a94e-9cd9a7f098a1))
  (pad "10" smd rect (at 7.4 5 180) (size 1.95 1.05) (layers "F.Cu" "F.Paste" "F.Mask") (tstamp 276430ee-7a5d-49cc-bfc8-a189d35f3f0c))
  (pad "11" smd rect (at 7.4 3 180) (size 1.95 1.05) (layers "F.Cu" "F.Paste" "F.Mask") (tstamp 7bc87a0d-e6d4-4780-ab6c-05e332dd0dff))
  (pad "12" smd rect (at 7.4 1 180) (size 1.95 1.05) (layers "F.Cu" "F.Paste" "F.Mask") (tstamp c8daeb28-c525-4e55-a264-b6cb07a30f2d))
  (pad "13" smd rect (at 7.4 -1 180) (size 1.95 1.05) (layers "F.Cu" "F.Paste" "F.Mask") (tstamp d807ab4e-782e-412a-a12e-09a77b8c3305))
  (pad "14" smd rect (at 7.4 -3 180) (size 1.95 1.05) (layers "F.Cu" "F.Paste" "F.Mask") (tstamp 795cd1df-7fbd-43e5-b8c7-37253d4ed335))
  (pad "15" smd rect (at 7.4 -5 180) (size 1.95 1.05) (layers "F.Cu" "F.Paste" "F.Mask") (tstamp 3dd68dde-fa6a-4678-8da5-bedcb21224da))
  (pad "16" smd rect (at 7.4 -7 180) (size 1.95 1.05) (layers "F.Cu" "F.Paste" "F.Mask") (tstamp 89ca5dbf-ffcd-4580-a3a6-e1aae7fb38ca))
)
